<svg width="34" height="34" viewBox="0 0 34 34" fill="none" xmlns="http://www.w3.org/2000/svg">
<circle cx="16.6221" cy="17" r="16.5" fill="url(#paint0_linear)"/>
<path d="M21.1704 21.3737C20.6059 20.3635 19.9263 19.6269 18.8512 20.0307L18.2074 20.2769C17.7372 20.4546 16.5421 21.6547 15.0694 17.7656C13.596 13.8804 15.2878 13.9847 15.7575 13.8098L16.4042 13.5641C17.4756 13.1571 17.4978 12.1551 17.2509 11.0241L17.1027 10.3395C16.8524 9.20968 16.4341 8.37395 15.361 8.77907L14.7801 9.0007C14.3243 9.1298 13.0061 9.60979 12.166 11.1359C11.157 12.9668 11.2621 15.5286 12.4814 18.7471C13.6977 21.9656 15.3176 23.9547 17.2879 24.6578C18.9254 25.2423 20.2335 24.7307 20.659 24.5262L21.2417 24.3046C22.3125 23.8992 22.0736 22.9959 21.5091 21.9838L21.1704 21.3737Z" fill="white"/>
<defs>
<linearGradient id="paint0_linear" x1="16.6221" y1="31.3936" x2="16.6221" y2="0.500004" gradientUnits="userSpaceOnUse">
<stop stop-color="#FF6B00"/>
<stop offset="0.40625" stop-color="#FF8100"/>
<stop offset="0.734375" stop-color="#FFA800"/>
</linearGradient>
</defs>
</svg>
