<svg width="15" height="14" viewBox="0 0 15 14" fill="none" xmlns="http://www.w3.org/2000/svg">
<rect x="6.84766" y="13.4834" width="13.1765" height="1.23529" rx="0.617647" transform="rotate(-90 6.84766 13.4834)" fill="#404040"/>
<rect x="0.878906" y="6.27808" width="13.1765" height="1.23529" rx="0.617647" fill="#404040"/>
</svg>
